examples/test_waveform_output/test_waveform.vcd
$comment Test waveform for torchbit wavetool $end
$date today $end
$timescale 1 ns $end
$scope module top $end
$var wire 1 ! clk $end
$var wire 8 " counter $end
$var wire 1 # valid $end
$var wire 16 $ data $end
$upscope $end
$enddefinitions $end
#0
$dumpvars
0!
b0 "
1#
b0 $
$end
#5
1!
#10
0!
b1 "
0#
b10 $
#15
1!
#20
0!
b10 "
b100 $
#25
1!
#30
0!
b11 "
1#
b110 $
#35
1!
#40
0!
b100 "
0#
b1000 $
#45
1!
#50
0!
b101 "
b1010 $
#55
1!
#60
0!
b110 "
1#
b1100 $
#65
1!
#70
0!
b111 "
0#
b1110 $
#75
1!
#80
0!
b1000 "
b10000 $
#85
1!
#90
0!
b1001 "
1#
b10010 $
#95
1!
#100
0!
b1010 "
0#
b10100 $
#105
1!
#110
0!
b1011 "
b10110 $
#115
1!
#120
0!
b1100 "
1#
b11000 $
#125
1!
#130
0!
b1101 "
0#
b11010 $
#135
1!
#140
0!
b1110 "
b11100 $
#145
1!
#150
0!
b1111 "
1#
b11110 $
#155
1!
#160
0!
b10000 "
0#
b100000 $
#165
1!
#170
0!
b10001 "
b100010 $
#175
1!
#180
0!
b10010 "
1#
b100100 $
#185
1!
#190
0!
b10011 "
0#
b100110 $
